simulation/v4/CPU/mux_21.vcd
$date
	Sun Apr 16 16:37:29 2023
$end
$version
	Icarus Verilog
$end
$timescale
	1ps
$end
$scope module CPU $end
$scope module PC_en_mux $end
$var wire 1 ! a $end
$var wire 1 " b $end
$var wire 1 # s $end
$var wire 1 $ out $end
$upscope $end
$upscope $end
$scope module CPU $end
$scope module alu $end
$scope module e_mux $end
$var wire 8 % a [7:0] $end
$var wire 8 & b [7:0] $end
$var wire 1 ' s $end
$var wire 8 ( out [7:0] $end
$upscope $end
$upscope $end
$upscope $end
$scope module CPU $end
$scope module alu $end
$scope module m0 $end
$var wire 8 ) a [7:0] $end
$var wire 8 * b [7:0] $end
$var wire 8 + out [7:0] $end
$var reg 16 , mult_out [15:0] $end
$upscope $end
$upscope $end
$upscope $end
$scope module CPU $end
$scope module alu $end
$scope module m1 $end
$var wire 8 - a [7:0] $end
$var wire 8 . b [7:0] $end
$var wire 8 / out [7:0] $end
$var reg 16 0 mult_out [15:0] $end
$upscope $end
$upscope $end
$upscope $end
$scope module CPU $end
$scope module alu $end
$scope module a0 $end
$var wire 8 1 out [7:0] $end
$var wire 8 2 b [7:0] $end
$var wire 8 3 a [7:0] $end
$var reg 9 4 add_out [8:0] $end
$upscope $end
$upscope $end
$upscope $end
$scope module CPU $end
$scope module alu $end
$scope module a1 $end
$var wire 8 5 a [7:0] $end
$var wire 8 6 b [7:0] $end
$var wire 8 7 out [7:0] $end
$var reg 9 8 add_out [8:0] $end
$upscope $end
$upscope $end
$upscope $end
$scope module CPU $end
$var wire 1 9 PC_en $end
$var wire 1 : clk $end
$var wire 8 ; in_port [7:0] $end
$var wire 1 < n_reset $end
$var wire 8 = out_port [7:0] $end
$var wire 1 " ready_in $end
$var wire 1 > wr_res $end
$var wire 8 ? rd_data_b [7:0] $end
$var wire 8 @ rd_data_a [7:0] $end
$var wire 1 ! pattern_match $end
$var wire 12 A instr [11:0] $end
$var wire 1 B PC_wait $end
$var wire 4 C PC_count [3:0] $end
$var wire 1 $ PC_comparator $end
$var wire 8 D ALU_result [7:0] $end
$var wire 5 E ALU_reg_en [4:0] $end
$var wire 1 ' ALU_add $end
$var reg 8 F ALU_imm [7:0] $end
$var reg 3 G opcode [2:0] $end
$var reg 1 H ready_in_p $end
$var reg 16 I sw [15:0] $end
$var reg 1 J we $end
$var reg 4 K wr_addr [3:0] $end
$scope module PC_en_mux $end
$upscope $end
$scope module alu $end
$var wire 1 : clk $end
$var wire 40 L ops [39:0] $end
$var wire 8 M result [7:0] $end
$var wire 5 N reg_en [4:0] $end
$var wire 8 O op_e [7:0] $end
$var wire 8 P mult_b [7:0] $end
$var wire 8 Q mult_a [7:0] $end
$var wire 1 ' f_add $end
$var wire 8 R add_a [7:0] $end
$var reg 8 S op_a_reg [7:0] $end
$var reg 8 T op_b_reg [7:0] $end
$var reg 8 U op_c_reg [7:0] $end
$var reg 8 V op_d_reg [7:0] $end
$var reg 8 W op_e_reg [7:0] $end
$scope module a0 $end
$upscope $end
$scope module a1 $end
$upscope $end
$scope module e_mux $end
$upscope $end
$scope module m0 $end
$upscope $end
$scope module m1 $end
$upscope $end
$upscope $end
$scope module id $end
$var wire 3 X opcode [2:0] $end
$var reg 5 Y ALU_reg_en [4:0] $end
$var reg 1 ' f_add $end
$var reg 1 > wr_res $end
$upscope $end
$scope module pc $end
$var wire 1 : clk $end
$var wire 1 9 en $end
$var wire 1 < n_reset $end
$var reg 4 Z count [3:0] $end
$upscope $end
$scope module pm $end
$var wire 4 [ addr [3:0] $end
$var reg 12 \ instr [11:0] $end
$upscope $end
$scope module rf $end
$var wire 1 : clk $end
$var wire 2 ] rd_addr_a [1:0] $end
$var wire 2 ^ rd_addr_b [1:0] $end
$var wire 8 _ sw [7:0] $end
$var wire 1 J we $end
$var wire 2 ` wr_addr [1:0] $end
$var wire 8 a wr_data [7:0] $end
$var wire 8 b data_b [7:0] $end
$var wire 8 c data_a [7:0] $end
$var reg 2 d rd_addr_a_p [1:0] $end
$var reg 2 e rd_addr_b_p [1:0] $end
$var reg 8 f rd_data_a [7:0] $end
$var reg 8 g rd_data_b [7:0] $end
$scope module sr0 $end
$var wire 1 : clk $end
$var wire 2 h rd_addr_a [1:0] $end
$var wire 2 i rd_addr_b [1:0] $end
$var wire 1 J we $end
$var wire 2 j wr_addr [1:0] $end
$var wire 8 k wr_data [7:0] $end
$var reg 8 l rd_data_a [7:0] $end
$var reg 8 m rd_data_b [7:0] $end
$scope begin $ivl_for_loop0 $end
$var integer 32 n i [31:0] $end
$upscope $end
$upscope $end
$upscope $end
$upscope $end
$enddefinitions $end
#0
$dumpvars
b100 n
bx m
bx l
bx k
bx j
b1 i
b1 h
bx g
bx f
bx e
bx d
bx c
bx b
bx a
bx `
bx _
b1 ^
b1 ]
b10000001001 \
b0 [
b0 Z
b0 Y
bx X
bx W
bx V
bx U
bx T
bx S
bx R
bx Q
bx P
bx O
b0 N
bx M
bx L
bx K
0J
bx00000000 I
0H
bx G
bx F
b0 E
bx D
b0 C
1B
b10000001001 A
bx @
bx ?
0>
bx =
0<
b0 ;
1:
09
bx 8
bx 7
bx 6
bx 5
bx 4
bx 3
bx 2
bx 1
bx 0
bx /
bx .
bx -
bx ,
bx +
bx *
bx )
bx (
0'
bx &
bx %
0$
1#
0"
0!
$end
#5000
0:
#10000
b1001 (
b1001 O
b0 %
b1001 &
b0 _
b0 @
b0 f
b0 ?
b0 g
b100100001001000000000000100100000000 L
b1001 F
b10 G
b10 X
bx00 K
b0 I
b1 e
b1 d
b0 c
b0 l
b0 b
b0 m
1:
#15000
0:
#20000
1<
b0 `
b0 j
b0 K
1:
#25000
0:
#30000
1:
#35000
0:
#40000
1:
#45000
0:
#50000
1:
#55000
0:
#60000
1:
#65000
0:
#70000
1:
#75000
0:
#80000
1:
#85000
0:
#90000
1:
#95000
0:
#100000
1:
#105000
0:
#110000
1:
#115000
0:
#120000
19
1$
1!
1"
b10001111 ;
1:
#125000
0:
#130000
0"
b0 ^
b0 i
b0 ]
b0 h
0B
0#
0$
b1000000 A
b1000000 \
b10001111 I
0!
1H
b1 C
b1 Z
b1 [
1:
#135000
0:
#140000
09
b10001111 %
b10001111 ?
b10001111 g
b10001111 @
b10001111 f
b10001111 (
b10001111 O
b1 ^
b1 i
b1 ]
b1 h
1B
1#
b10001111 _
b11111 E
b11111 N
b11111 Y
1>
1'
b1000000 &
b10000001001 A
b10000001001 \
b0 e
b0 d
0H
b1000111110001111 I
b1 K
b0 G
b0 X
b100000001000000100011110100000010001111 L
b1000000 F
b10 C
b10 Z
b10 [
1:
#145000
0:
#150000
b10001111 =
b10001111 7
b10001111 D
b10001111 M
b10001111 a
b10001111 k
b110001111 8
b0 1
b0 5
b0 R
b0 4
b0 /
b0 2
b0 P
b1001 (
b1001 O
b0 +
b0 3
b0 Q
b0 %
b1001 &
b1 `
b1 j
b0 0
b0 E
b0 N
b0 Y
0>
0'
b0 ,
b0 ?
b0 g
b0 @
b0 f
b100100001001000000000000100100000000 L
b1001 F
b10 G
b10 X
b100 K
1J
b10001111 6
b10001111 W
b0 .
b0 V
b10001111 -
b10001111 U
b0 *
b0 T
b10001111 )
b10001111 S
b1 e
b1 d
1:
#155000
0:
#160000
b0 `
b0 j
b0 K
0J
1:
#165000
0:
#170000
b10001111 %
b10001111 @
b10001111 f
b100100001001100011110000100110001111 L
b10001111 ?
b10001111 g
b10001111 c
b10001111 l
b10001111 b
b10001111 m
1:
#175000
0:
#180000
1:
#185000
0:
#190000
19
1$
1!
1"
b11101010 ;
1:
#195000
0:
#200000
0"
b0 ^
b0 i
b0 ]
b0 h
0B
0#
0$
b10000000 A
b10000000 \
0!
1H
b1000111111101010 I
b11 C
b11 Z
b11 [
1:
#205000
0:
#210000
b11101010 %
b11101010 (
b11101010 O
b11101010 ?
b11101010 g
b11101010 @
b11101010 f
b10000000 &
b11111 E
b11111 N
b11111 Y
1>
1'
b11101010 _
b11001100000 A
b11001100000 \
b1000000010000000111010101000000011101010 L
b10000000 F
b0 G
b0 X
b10 K
b1110101011101010 I
0H
b0 e
b0 d
b0 c
b0 l
b0 b
b0 m
b100 C
b100 Z
b100 [
1:
#215000
0:
#220000
b11101010 =
b11101010 7
b11101010 D
b11101010 M
b11101010 a
b11101010 k
b1100000 (
b1100000 O
b111101010 8
b10 `
b10 j
b10 E
b10 N
b10 Y
0>
0'
b1100000 &
b100001000000 A
b100001000000 \
b11101010 )
b11101010 S
b11101010 -
b11101010 U
b11101010 6
b11101010 W
b1001 K
1J
b11 G
b11 X
b110000001100000111010100110000011101010 L
b1100000 F
b101 C
b101 Z
b101 [
1:
#225000
0:
#230000
b11011001 =
b11011001 7
b11011001 D
b11011001 M
b11011001 a
b11011001 k
b111011001 8
b11101111 1
b11101111 5
b11101111 R
b111101111 4
b1000000 (
b1000000 O
b11101111 +
b11101111 3
b11101111 Q
b10 ]
b10 h
b1000000 &
b1 `
b1 j
b1000 E
b1000 N
b1000 Y
b1111011111000000 ,
b101000010100 A
b101000010100 \
b100000001000000111010100100000011101010 L
b1000000 F
b100 G
b100 X
b101 K
0J
b1100000 *
b1100000 T
b110 C
b110 Z
b110 [
1:
#235000
0:
#240000
b11001110 =
b11001110 7
b11001110 D
b11001110 M
b11001110 a
b11001110 k
b111001110 8
b11100100 1
b11100100 5
b11100100 R
b111100100 4
b11110101 /
b11110101 2
b11110101 P
b10100 (
b10100 O
b10 ^
b10 i
b1 ]
b1 h
1#
b1111101010000000 0
b10000 E
b10000 N
b10000 Y
b10100 &
b1011001010 A
b1011001010 \
b11101010 c
b11101010 l
b10 d
b1000000 .
b1000000 V
b100 K
b101 G
b101 X
b1010000010100111010100001010011101010 L
b10100 F
b111 C
b111 Z
b111 [
1:
#245000
0:
#250000
b11001010 (
b11001010 O
b11111000 =
b11111000 7
b11111000 D
b11111000 M
b11111000 a
b11111000 k
b10001111 %
b0 ^
b0 i
b0 ]
b0 h
0#
b11001010 &
b0 `
b0 j
b101 E
b101 N
b101 Y
1>
b111111000 8
b10001111 @
b10001111 f
b11011000000 A
b11011000000 \
b1100101011001010111010101100101010001111 L
b11001010 F
b1 G
b1 X
b11 K
b10100 6
b10100 W
b10 e
b1 d
b10001111 c
b10001111 l
b11101010 b
b11101010 m
b1000 C
b1000 Z
b1000 [
1:
#255000
0:
#260000
b10110100 =
b10110100 7
b10110100 D
b10110100 M
b10110100 a
b10110100 k
b110110100 8
b10100000 1
b10100000 5
b10100000 R
b110100000 4
b10101011 +
b10101011 3
b10101011 Q
b11101010 %
b11000000 (
b11000000 O
b1101010110100000 ,
b11 `
b11 j
b11101010 @
b11101010 f
b10 E
b10 N
b10 Y
0>
b11000000 &
b100001100000 A
b100001100000 \
b0 c
b0 l
b0 b
b0 m
b0 e
b0 d
b10001111 )
b10001111 S
b1111 K
1J
b11 G
b11 X
b1100000011000000111010101100000011101010 L
b11000000 F
b1001 C
b1001 Z
b1001 [
1:
#265000
0:
#270000
b1000001 =
b1000001 7
b1000001 D
b1000001 M
b1000001 a
b1000001 k
b1000001 8
b101101 1
b101101 5
b101101 R
b101101 4
b1100000 (
b1100000 O
b111000 +
b111000 3
b111000 Q
b1 ]
b1 h
1#
b1100000 &
b1000 E
b1000 N
b1000 Y
b1110001000000 ,
b101011101100 A
b101011101100 \
b110000001100000111010100110000011101010 L
b1100000 F
b100 G
b100 X
b1101 K
0J
b11000000 *
b11000000 T
b1010 C
b1010 Z
b1010 [
1:
#275000
0:
#280000
b111011 =
b111011 7
b111011 D
b111011 M
b111011 a
b111011 k
b111011 8
b100111 1
b100111 5
b100111 R
b100111 4
b11101111 /
b11101111 2
b11101111 P
b10001111 %
b11101100 (
b11101100 O
b10 ^
b10 i
b1111011111000000 0
b1 `
b1 j
b10001111 @
b10001111 f
b10000 E
b10000 N
b10000 Y
b11101100 &
b1010001010 A
b1010001010 \
b10001111 c
b10001111 l
b1 d
b1100000 .
b1100000 V
b111 K
b101 G
b101 X
b1110110011101100111010101110110010001111 L
b11101100 F
b1011 C
b1011 Z
b1011 [
1:
#285000
0:
#290000
b10001010 (
b10001010 O
b10011 =
b10011 7
b10011 D
b10011 M
b10011 a
b10011 k
b0 ^
b0 i
b11 ]
b11 h
b10001010 &
b11 `
b11 j
b101 E
b101 N
b101 Y
1>
b10011 8
b1011000 A
b1011000 \
b1000101010001010111010101000101010001111 L
b10001010 F
b1 G
b1 X
b1110 K
b11101100 6
b11101100 W
b10 e
b11101010 b
b11101010 m
b1100 C
b1100 Z
b1100 [
1:
#295000
0:
#300000
09
b10110100 %
b10110100 (
b10110100 O
b1 ^
b1 i
b0 ]
b0 h
1B
0#
b10 `
b10 j
b10110100 @
b10110100 f
b11111 E
b11111 N
b11111 Y
1'
b1011000 &
b10000000001 A
b10000000001 \
b10110100 c
b10110100 l
b0 b
b0 m
b0 e
b11 d
b1001 K
1J
b0 G
b0 X
b101100001011000111010100101100010110100 L
b1011000 F
b1101 C
b1101 Z
b1101 [
1:
#305000
0:
#310000
b0 1
b0 5
b0 R
b0 4
b10110100 =
b10110100 7
b10110100 D
b10110100 M
b10110100 a
b10110100 k
b0 /
b0 2
b0 P
b1 (
b1 O
b0 +
b0 3
b0 Q
b11101010 %
b1 &
b1 `
b1 j
b110110100 8
b0 0
b0 E
b0 N
b0 Y
0>
0'
b0 ,
b11101010 @
b11101010 f
b10001111 ?
b10001111 g
b100000001100011110000000111101010 L
b1 F
b10 G
b10 X
b100 K
b10110100 6
b10110100 W
b0 .
b0 V
b0 *
b0 T
b10110100 )
b10110100 S
b1 e
b0 d
b0 c
b0 l
b10001111 b
b10001111 m
1:
#315000
0:
#320000
19
1$
1!
1"
b0 `
b0 j
b0 K
0J
1:
#325000
0:
#330000
b0 ^
b0 i
b10 ]
b10 h
0B
b100000001101101000000000111101010 L
b10110100 ?
b10110100 g
b1010000 A
b1010000 \
0!
1H
b10110100 b
b10110100 m
b1110 C
b1110 Z
b1110 [
1:
#335000
0:
#340000
09
b10011 %
b10011 (
b10011 O
b0 ]
b0 h
1B
b10011 @
b10011 f
b11101010 ?
b11101010 g
b11111 E
b11111 N
b11111 Y
1>
1'
b1010000 &
b10000000000 A
b10000000000 \
b10011 c
b10011 l
b0 b
b0 m
b0 e
b10 d
b1 K
b0 G
b0 X
b101000001010000111010100101000000010011 L
b1010000 F
b1111 C
b1111 Z
b1111 [
1:
#345000
0:
#350000
b10011 =
b10011 7
b10011 D
b10011 M
b10011 a
b10011 k
b0 (
b0 O
b11101010 %
b0 &
b1 `
b1 j
b10011 8
b0 E
b0 N
b0 Y
0>
0'
b11101010 @
b11101010 f
b111010100000000011101010 L
b0 F
b10 G
b10 X
b100 K
1J
b10011 6
b10011 W
b10011 )
b10011 S
b0 d
b0 c
b0 l
1:
#355000
0:
#360000
19
0$
0"
b0 `
b0 j
b0 K
0J
1:
#365000
0:
#370000
09
b1 ^
b1 i
b1 ]
b1 h
1#
b10000001001 A
b10000001001 \
0H
b0 C
b0 Z
b0 [
1:
#375000
0:
#380000
b10011 %
b1001 (
b1001 O
b10011 ?
b10011 g
b10011 @
b10011 f
b1001 &
b10011 c
b10011 l
b10011 b
b10011 m
b1 e
b1 d
b100100001001000100110000100100010011 L
b1001 F
1:
#385000
0:
#390000
1:
#395000
0:
#400000
1:
#405000
0:
#410000
19
1$
1!
1"
b1110100 ;
1:
#415000
0:
#420000
0"
b0 ^
b0 i
b0 ]
b0 h
0B
0#
0$
b1000000 A
b1000000 \
0!
1H
b1110101001110100 I
b1 C
b1 Z
b1 [
1:
#425000
0:
#430000
09
b1110100 (
b1110100 O
b1110100 %
b1 ^
b1 i
b1 ]
b1 h
1B
1#
b1000000 &
b11111 E
b11111 N
b11111 Y
1>
1'
b1110100 _
b1110100 @
b1110100 f
b1110100 ?
b1110100 g
b10000001001 A
b10000001001 \
b100000001000000011101000100000001110100 L
b1000000 F
b0 G
b0 X
b1 K
b111010001110100 I
0H
b0 e
b0 d
b0 c
b0 l
b0 b
b0 m
b10 C
b10 Z
b10 [
1:
#435000
0:
#440000
b1110100 =
b1110100 7
b1110100 D
b1110100 M
b1110100 a
b1110100 k
b10011 %
b1001 (
b1001 O
b1110100 8
b1 `
b1 j
b10011 @
b10011 f
b10011 ?
b10011 g
b0 E
b0 N
b0 Y
0>
0'
b1001 &
b10011 c
b10011 l
b10011 b
b10011 m
b1 e
b1 d
b1110100 )
b1110100 S
b1110100 -
b1110100 U
b1110100 6
b1110100 W
b100 K
1J
b10 G
b10 X
b100100001001000100110000100100010011 L
b1001 F
1:
#445000
0:
#450000
19
1$
1!
1"
b11000101 ;
b0 `
b0 j
b0 K
0J
1:
#455000
0:
#460000
0"
b1110100 %
b0 ^
b0 i
b0 ]
b0 h
0B
0#
b1110100 @
b1110100 f
b100100001001011101000000100101110100 L
b1110100 ?
b1110100 g
0$
b10000000 A
b10000000 \
b1110100 c
b1110100 l
b1110100 b
b1110100 m
0!
1H
b111010011000101 I
b11 C
b11 Z
b11 [
1:
#465000
0:
#470000
b11000101 %
b11000101 (
b11000101 O
b11000101 ?
b11000101 g
b11000101 @
b11000101 f
b10000000 &
b11111 E
b11111 N
b11111 Y
1>
1'
b11000101 _
b11001100000 A
b11001100000 \
b1000000010000000110001011000000011000101 L
b10000000 F
b0 G
b0 X
b10 K
b1100010111000101 I
0H
b0 e
b0 d
b0 c
b0 l
b0 b
b0 m
b100 C
b100 Z
b100 [
1:
#475000
0:
#480000
b11000101 =
b11000101 7
b11000101 D
b11000101 M
b11000101 a
b11000101 k
b1100000 (
b1100000 O
b111000101 8
b10 `
b10 j
b10 E
b10 N
b10 Y
0>
0'
b1100000 &
b100001000000 A
b100001000000 \
b11000101 )
b11000101 S
b11000101 -
b11000101 U
b11000101 6
b11000101 W
b1001 K
1J
b11 G
b11 X
b110000001100000110001010110000011000101 L
b1100000 F
b101 C
b101 Z
b101 [
1:
#485000
0:
#490000
b10011000 =
b10011000 7
b10011000 D
b10011000 M
b10011000 a
b10011000 k
b110011000 8
b11010011 1
b11010011 5
b11010011 R
b111010011 4
b1000000 (
b1000000 O
b11010011 +
b11010011 3
b11010011 Q
b10 ]
b10 h
b1000000 &
b1 `
b1 j
b1000 E
b1000 N
b1000 Y
b1110100111100000 ,
b101000010100 A
b101000010100 \
b100000001000000110001010100000011000101 L
b1000000 F
b100 G
b100 X
b101 K
0J
b1100000 *
b1100000 T
b110 C
b110 Z
b110 [
1:
#495000
0:
#500000
b1111010 =
b1111010 7
b1111010 D
b1111010 M
b1111010 a
b1111010 k
b101111010 8
b10110101 1
b10110101 5
b10110101 R
b110110101 4
b11100010 /
b11100010 2
b11100010 P
b10100 (
b10100 O
b10 ^
b10 i
b1 ]
b1 h
1#
b1111000101000000 0
b10000 E
b10000 N
b10000 Y
b10100 &
b1011001010 A
b1011001010 \
b11000101 c
b11000101 l
b10 d
b1000000 .
b1000000 V
b100 K
b101 G
b101 X
b1010000010100110001010001010011000101 L
b10100 F
b111 C
b111 Z
b111 [
1:
#505000
0:
#510000
b11001010 (
b11001010 O
b11001001 =
b11001001 7
b11001001 D
b11001001 M
b11001001 a
b11001001 k
b1110100 %
b0 ^
b0 i
b0 ]
b0 h
0#
b11001010 &
b0 `
b0 j
b101 E
b101 N
b101 Y
1>
b111001001 8
b1110100 @
b1110100 f
b11011000000 A
b11011000000 \
b1100101011001010110001011100101001110100 L
b11001010 F
b1 G
b1 X
b11 K
b10100 6
b10100 W
b10 e
b1 d
b1110100 c
b1110100 l
b11000101 b
b11000101 m
b1000 C
b1000 Z
b1000 [
1:
#515000
0:
#520000
b1001101 =
b1001101 7
b1001101 D
b1001101 M
b1001101 a
b1001101 k
b1001101 8
b111001 1
b111001 5
b111001 R
b111001 4
b1010111 +
b1010111 3
b1010111 Q
b11000101 %
b11000000 (
b11000000 O
b10101110000000 ,
b11 `
b11 j
b11000101 @
b11000101 f
b10 E
b10 N
b10 Y
0>
b11000000 &
b100001100000 A
b100001100000 \
b0 c
b0 l
b0 b
b0 m
b0 e
b0 d
b1110100 )
b1110100 S
b1111 K
1J
b11 G
b11 X
b1100000011000000110001011100000011000101 L
b11000000 F
b1001 C
b1001 Z
b1001 [
1:
#525000
0:
#530000
b10111100 =
b10111100 7
b10111100 D
b10111100 M
b10111100 a
b10111100 k
b110111100 8
b10101000 1
b10101000 5
b10101000 R
b110101000 4
b1100000 (
b1100000 O
b11000110 +
b11000110 3
b11000110 Q
b1 ]
b1 h
1#
b1100000 &
b1000 E
b1000 N
b1000 Y
b1110001100000000 ,
b101011101100 A
b101011101100 \
b110000001100000110001010110000011000101 L
b1100000 F
b100 G
b100 X
b1101 K
0J
b11000000 *
b11000000 T
b1010 C
b1010 Z
b1010 [
1:
#535000
0:
#540000
b10101101 =
b10101101 7
b10101101 D
b10101101 M
b10101101 a
b10101101 k
b110101101 8
b10011001 1
b10011001 5
b10011001 R
b110011001 4
b11010011 /
b11010011 2
b11010011 P
b1110100 %
b11101100 (
b11101100 O
b10 ^
b10 i
b1110100111100000 0
b1 `
b1 j
b1110100 @
b1110100 f
b10000 E
b10000 N
b10000 Y
b11101100 &
b1010001010 A
b1010001010 \
b1110100 c
b1110100 l
b1 d
b1100000 .
b1100000 V
b111 K
b101 G
b101 X
b1110110011101100110001011110110001110100 L
b11101100 F
b1011 C
b1011 Z
b1011 [
1:
#545000
0:
#550000
b10001010 (
b10001010 O
b10000101 =
b10000101 7
b10000101 D
b10000101 M
b10000101 a
b10000101 k
b0 ^
b0 i
b11 ]
b11 h
b10001010 &
b11 `
b11 j
b101 E
b101 N
b101 Y
1>
b110000101 8
b1011000 A
b1011000 \
b1000101010001010110001011000101001110100 L
b10001010 F
b1 G
b1 X
b1110 K
b11101100 6
b11101100 W
b10 e
b11000101 b
b11000101 m
b1100 C
b1100 Z
b1100 [
1:
#555000
0:
#560000
09
b1001101 %
b1001101 (
b1001101 O
b1 ^
b1 i
b0 ]
b0 h
1B
0#
b10 `
b10 j
b1001101 @
b1001101 f
b11111 E
b11111 N
b11111 Y
1'
b1011000 &
b10000000001 A
b10000000001 \
b1001101 c
b1001101 l
b0 b
b0 m
b0 e
b11 d
b1001 K
1J
b0 G
b0 X
b101100001011000110001010101100001001101 L
b1011000 F
b1101 C
b1101 Z
b1101 [
1:
#565000
0:
#570000
b0 1
b0 5
b0 R
b0 4
b1001101 =
b1001101 7
b1001101 D
b1001101 M
b1001101 a
b1001101 k
b0 /
b0 2
b0 P
b1 (
b1 O
b0 +
b0 3
b0 Q
b11000101 %
b1 &
b1 `
b1 j
b1001101 8
b0 0
b0 E
b0 N
b0 Y
0>
0'
b0 ,
b11000101 @
b11000101 f
b1110100 ?
b1110100 g
b100000001011101000000000111000101 L
b1 F
b10 G
b10 X
b100 K
b1001101 6
b1001101 W
b0 .
b0 V
b0 *
b0 T
b1001101 )
b1001101 S
b1 e
b0 d
b0 c
b0 l
b1110100 b
b1110100 m
1:
#575000
0:
#580000
b0 `
b0 j
b0 K
0J
1:
#585000
0:
#590000
b100000001010011010000000111000101 L
b1001101 ?
b1001101 g
b1001101 b
b1001101 m
1:
#595000
0:
#600000
19
1$
1!
1"
1:
#605000
0:
#610000
b0 ^
b0 i
b10 ]
b10 h
0B
b1010000 A
b1010000 \
0!
1H
b1110 C
b1110 Z
b1110 [
1:
#615000
0:
#620000
09
b10000101 %
b10000101 (
b10000101 O
b0 ]
b0 h
1B
b10000101 @
b10000101 f
b11000101 ?
b11000101 g
b11111 E
b11111 N
b11111 Y
1>
1'
b1010000 &
b10000000000 A
b10000000000 \
b10000101 c
b10000101 l
b0 b
b0 m
b0 e
b10 d
b1 K
b0 G
b0 X
b101000001010000110001010101000010000101 L
b1010000 F
b1111 C
b1111 Z
b1111 [
1:
#625000
0:
#630000
b10000101 =
b10000101 7
b10000101 D
b10000101 M
b10000101 a
b10000101 k
b0 (
b0 O
b11000101 %
b0 &
b1 `
b1 j
b110000101 8
b0 E
b0 N
b0 Y
0>
0'
b11000101 @
b11000101 f
b110001010000000011000101 L
b0 F
b10 G
b10 X
b100 K
1J
b10000101 6
b10000101 W
b10000101 )
b10000101 S
b0 d
b0 c
b0 l
1:
#635000
0:
#640000
19
0$
0"
b0 `
b0 j
b0 K
0J
1:
#645000
0:
#650000
09
b1 ^
b1 i
b1 ]
b1 h
1#
b10000001001 A
b10000001001 \
0H
b0 C
b0 Z
b0 [
1:
#655000
0:
#660000
b10000101 %
b1001 (
b1001 O
b10000101 ?
b10000101 g
b10000101 @
b10000101 f
b1001 &
b10000101 c
b10000101 l
b10000101 b
b10000101 m
b1 e
b1 d
b100100001001100001010000100110000101 L
b1001 F
1:
#665000
0:
#670000
1:
#675000
0:
#680000
1:
#685000
0:
#690000
1:
#695000
0:
#700000
19
1$
1!
1"
b1011001 ;
1:
#705000
0:
#710000
0"
b0 ^
b0 i
b0 ]
b0 h
0B
0#
0$
b1000000 A
b1000000 \
b1100010101011001 I
0!
1H
b1 C
b1 Z
b1 [
1:
#715000
0:
#720000
09
b1011001 %
b1011001 (
b1011001 O
b1 ^
b1 i
b1 ]
b1 h
1B
1#
b1011001 _
b1011001 @
b1011001 f
b1011001 ?
b1011001 g
b11111 E
b11111 N
b11111 Y
1>
1'
b1000000 &
b10000001001 A
b10000001001 \
b0 c
b0 l
b0 b
b0 m
b0 e
b0 d
0H
b101100101011001 I
b1 K
b0 G
b0 X
b100000001000000010110010100000001011001 L
b1000000 F
b10 C
b10 Z
b10 [
1:
#725000
0:
#730000
19
1$
1!
1"
b10010001 ;
b1011001 =
b1011001 7
b1011001 D
b1011001 M
b1011001 a
b1011001 k
b1001 (
b1001 O
b10000101 %
b1001 &
b1 `
b1 j
b1011001 8
b0 E
b0 N
b0 Y
0>
0'
b10000101 @
b10000101 f
b10000101 ?
b10000101 g
b100100001001100001010000100110000101 L
b1001 F
b10 G
b10 X
b100 K
1J
b1011001 6
b1011001 W
b1011001 -
b1011001 U
b1011001 )
b1011001 S
b1 e
b1 d
b10000101 c
b10000101 l
b10000101 b
b10000101 m
1:
#735000
0:
#740000
0"
b0 ^
b0 i
b0 ]
b0 h
0B
0#
0$
b0 `
b0 j
b10000000 A
b10000000 \
0!
1H
b101100110010001 I
b0 K
0J
b11 C
b11 Z
b11 [
1:
#745000
0:
#750000
b10010001 (
b10010001 O
b10010001 %
b10000000 &
b11111 E
b11111 N
b11111 Y
1>
1'
b10010001 _
b10010001 @
b10010001 f
b10010001 ?
b10010001 g
b11001100000 A
b11001100000 \
b1000000010000000100100011000000010010001 L
b10000000 F
b0 G
b0 X
b10 K
b1001000110010001 I
0H
b0 e
b0 d
b0 c
b0 l
b0 b
b0 m
b100 C
b100 Z
b100 [
1:
#755000
0:
#760000
b10010001 =
b10010001 7
b10010001 D
b10010001 M
b10010001 a
b10010001 k
b1100000 (
b1100000 O
b110010001 8
b10 `
b10 j
b10 E
b10 N
b10 Y
0>
0'
b1100000 &
b100001000000 A
b100001000000 \
b10010001 )
b10010001 S
b10010001 -
b10010001 U
b10010001 6
b10010001 W
b1001 K
1J
b11 G
b11 X
b110000001100000100100010110000010010001 L
b1100000 F
b101 C
b101 Z
b101 [
1:
#765000
0:
#770000
b111101 =
b111101 7
b111101 D
b111101 M
b111101 a
b111101 k
b100111101 8
b10101100 1
b10101100 5
b10101100 R
b110101100 4
b1000000 (
b1000000 O
b10101100 +
b10101100 3
b10101100 Q
b10 ]
b10 h
b1000000 &
b1 `
b1 j
b1000 E
b1000 N
b1000 Y
b1101011001100000 ,
b101000010100 A
b101000010100 \
b100000001000000100100010100000010010001 L
b1000000 F
b100 G
b100 X
b101 K
0J
b1100000 *
b1100000 T
b110 C
b110 Z
b110 [
1:
#775000
0:
#780000
b101 =
b101 7
b101 D
b101 M
b101 a
b101 k
b101 8
b1110100 1
b1110100 5
b1110100 R
b101110100 4
b11001000 /
b11001000 2
b11001000 P
b10100 (
b10100 O
b10 ^
b10 i
b1 ]
b1 h
1#
b1110010001000000 0
b10000 E
b10000 N
b10000 Y
b10100 &
b1011001010 A
b1011001010 \
b10010001 c
b10010001 l
b10 d
b1000000 .
b1000000 V
b100 K
b101 G
b101 X
b1010000010100100100010001010010010001 L
b10100 F
b111 C
b111 Z
b111 [
1:
#785000
0:
#790000
b11001010 (
b11001010 O
b10001000 =
b10001000 7
b10001000 D
b10001000 M
b10001000 a
b10001000 k
b1011001 %
b0 ^
b0 i
b0 ]
b0 h
0#
b11001010 &
b0 `
b0 j
b101 E
b101 N
b101 Y
1>
b10001000 8
b1011001 @
b1011001 f
b11011000000 A
b11011000000 \
b1100101011001010100100011100101001011001 L
b11001010 F
b1 G
b1 X
b11 K
b10100 6
b10100 W
b10 e
b1 d
b1011001 c
b1011001 l
b10010001 b
b10010001 m
b1000 C
b1000 Z
b1000 [
1:
#795000
0:
#800000
b11110 =
b11110 7
b11110 D
b11110 M
b11110 a
b11110 k
b11110 8
b1010 1
b1010 5
b1010 R
b1010 4
b1000010 +
b1000010 3
b1000010 Q
b10010001 %
b11000000 (
b11000000 O
b10000101100000 ,
b11 `
b11 j
b10010001 @
b10010001 f
b10 E
b10 N
b10 Y
0>
b11000000 &
b100001100000 A
b100001100000 \
b0 c
b0 l
b0 b
b0 m
b0 e
b0 d
b1011001 )
b1011001 S
b1111 K
1J
b11 G
b11 X
b1100000011000000100100011100000010010001 L
b11000000 F
b1001 C
b1001 Z
b1001 [
1:
#805000
0:
